0
1
2
3
4
5
6
7
8
9
10
11
12
13
14
15
16
17
18
19
20
21
22
23
24
25
26
27
28
29
30
31
32
33
34
132
133
134
33
34
132
133
134
140
141
142
143
144
145
146
147
148
149
60
61
62
63
64
65
66
67
68
69
70
71
72
73
74
80
81
82
83
84
150
151
152
153
154
155
156
157
158
159
160
161
162
163
164
165
166
167
168
169
170
171
172
173
174
175
176
177
178
177
176
170
169
168
167
175
172
173
178
174
171
166
165
164
163
162
161
160
159
158
157
156
155
154
153
152
151
150
149
148
147
146
145
144
143
142
141
140
139
138
137
136
135
134
133
132
131
130
129
128
127
126
125
124
123
122
121
120
131
130
124
123
122
121
120
90
91
92
93
94
100
101
102
103
104
110
111
112
113
114
